<svg width="27" height="34" viewBox="0 0 27 34" fill="none" xmlns="http://www.w3.org/2000/svg">
<path d="M27 13.6C27 23.8 13.5 34 13.5 34C13.5 34 0 23.8 0 13.6C0 6.08893 6.04416 0 13.5 0C20.9558 0 27 6.08893 27 13.6Z" fill="#3E7DFF"/>
<circle cx="13.5" cy="13.5" r="6.5" fill="white"/>
</svg>
