<svg width="16" height="16" viewBox="0 0 16 16" fill="none" xmlns="http://www.w3.org/2000/svg">
<path d="M7.9987 14.6666C11.6806 14.6666 14.6654 11.6818 14.6654 7.99992C14.6654 4.31802 11.6806 1.33325 7.9987 1.33325C4.3168 1.33325 1.33203 4.31802 1.33203 7.99992C1.33203 11.6818 4.3168 14.6666 7.9987 14.6666Z" stroke="#00AFCA" stroke-width="1.06667" stroke-linecap="round" stroke-linejoin="round"/>
<path d="M8 10.6667V8" stroke="#00AFCA" stroke-width="1.06667" stroke-linecap="round" stroke-linejoin="round"/>
<path d="M8 5.33325H8.00667" stroke="#00AFCA" stroke-width="1.06667" stroke-linecap="round" stroke-linejoin="round"/>
</svg>
