<svg width="84" height="48" viewBox="0 0 84 48" fill="none" xmlns="http://www.w3.org/2000/svg">
<rect width="84" height="48" rx="4" fill="#0061D9"/>
<path d="M38.4081 36H43.355V23.9935H46.675C46.675 23.9935 46.9859 22.056 47.1375 19.9375H43.3743V17.1744C43.3743 16.7616 43.9132 16.2071 44.4473 16.2071H47.1429V12H43.4767C38.2864 12 38.4081 16.0443 38.4081 16.6482V19.9515H36V23.992H38.4081V36Z" fill="white"/>
</svg>
