<svg width="556" height="744" viewBox="0 0 556 744" fill="none" xmlns="http://www.w3.org/2000/svg">
<g opacity="0.03">
<path d="M543.6 74.4H456.8V37.2C456.8 16.6564 440.144 0 419.6 0H-150.8C-171.344 0 -188 16.6564 -188 37.2V161.2C-188 181.744 -171.344 198.4 -150.8 198.4H-138.4V285.2C-138.4 305.744 -121.744 322.4 -101.2 322.4C-80.6564 322.4 -64 305.744 -64 285.2C-64 278.352 -58.4479 272.8 -51.6 272.8C-44.7522 272.8 -39.2 278.352 -39.2 285.2V334.8C-39.2 355.344 -22.5436 372 -2 372C18.5435 372 35.2 355.344 35.2 334.8V260.4C35.2 253.552 40.7521 248 47.6 248C68.1436 248 84.8 231.344 84.8 210.8V198.4H419.6C440.144 198.4 456.8 181.744 456.8 161.2V148.8H481.6V240.686L155.743 335.296C150.445 336.834 146.8 341.684 146.8 347.2V483.6H109.6C105.955 483.6 102.492 485.204 100.137 487.99C97.7812 490.775 96.7701 494.45 97.3756 498.046L109.424 570.4L97.3756 642.753C97.2605 643.432 97.2 644.116 97.2 644.8V731.6C97.2 738.448 102.752 744 109.6 744H258.4C265.248 744 270.8 738.448 270.8 731.6V644.8C270.8 644.116 270.739 643.432 270.624 642.753L258.576 570.4L270.624 498.046C271.23 494.45 270.219 490.775 267.863 487.99C265.508 485.204 262.045 483.6 258.4 483.6H221.2V391.714L547.057 297.104C552.355 295.566 556 290.716 556 285.2V86.8C556 79.9521 550.448 74.4 543.6 74.4ZM60 210.8C60 217.648 54.4478 223.2 47.6 223.2C27.0564 223.2 10.4 239.856 10.4 260.4V334.8C10.4 341.648 4.84784 347.2 -2 347.2C-8.84785 347.2 -14.4 341.648 -14.4 334.8V285.2C-14.4 264.656 -31.0565 248 -51.6 248C-72.1436 248 -88.8 264.656 -88.8 285.2C-88.8 292.048 -94.3521 297.6 -101.2 297.6C-108.048 297.6 -113.6 292.048 -113.6 285.2V198.4H60V210.8ZM432 86.8V161.2C432 168.048 426.448 173.6 419.6 173.6H-150.8C-157.648 173.6 -163.2 168.048 -163.2 161.2V37.2C-163.2 30.3521 -157.648 24.8 -150.8 24.8H419.6C426.448 24.8 432 30.3521 432 37.2V86.8ZM243.754 508.4L233.836 568.354C233.6 569.71 233.6 571.09 233.836 572.446L246 645.829V719.2H122V645.829L134.224 572.446C134.461 571.09 134.461 569.71 134.224 568.354L124.246 508.4H243.754ZM531.2 275.888L205.343 370.486C200.039 372.024 196.394 376.886 196.4 382.402V483.6H171.6V356.512L497.457 261.914C502.761 260.376 506.406 255.514 506.4 249.998V136.4C506.4 129.552 500.848 124 494 124H456.8V99.2H531.2V275.888Z" fill="#0061D9"/>
</g>
</svg>
