<svg width="16" height="16" viewBox="0 0 16 16" fill="none" xmlns="http://www.w3.org/2000/svg">
<g clip-path="url(#clip0)">
<path d="M14.55 15.3674V13.7674C14.55 12.9187 14.2129 12.1048 13.6127 11.5046C13.0126 10.9045 12.1987 10.5674 11.35 10.5674H4.95C4.10131 10.5674 3.28737 10.9045 2.68726 11.5046C2.08714 12.1048 1.75 12.9187 1.75 13.7674V15.3674" stroke="#999999" stroke-width="1.28" stroke-linecap="round" stroke-linejoin="round"/>
<path d="M8.14922 7.36729C9.91653 7.36729 11.3492 5.9346 11.3492 4.16729C11.3492 2.39997 9.91653 0.967285 8.14922 0.967285C6.38191 0.967285 4.94922 2.39997 4.94922 4.16729C4.94922 5.9346 6.38191 7.36729 8.14922 7.36729Z" stroke="#999999" stroke-width="1.28" stroke-linecap="round" stroke-linejoin="round"/>
</g>
<defs>
<clipPath id="clip0">
<rect width="16" height="16" fill="white"/>
</clipPath>
</defs>
</svg>
