<svg width="32" height="32" viewBox="0 0 32 32" fill="none" xmlns="http://www.w3.org/2000/svg">
<rect width="32" height="32" rx="4"/>
<path d="M9.03033 19.2526C9.8505 20.3617 10.7929 21.3425 12.0104 22.0364C13.3891 22.8228 14.8735 23.06 16.439 22.9877C17.1704 22.9527 17.3904 22.7623 17.4241 22.0351C17.4468 21.5368 17.5045 21.0398 17.7503 20.592C17.9919 20.1529 18.3584 20.0698 18.7812 20.343C18.9917 20.4811 19.1691 20.6538 19.3369 20.8387C19.7489 21.2875 20.1478 21.7524 20.5747 22.1865C21.1113 22.7318 21.7479 23.0532 22.5464 22.9877L25.6406 22.989C26.1385 22.9553 26.3975 22.3461 26.1117 21.7897C25.9104 21.4014 25.6461 21.0559 25.3668 20.7206C24.7345 19.9626 23.9894 19.3165 23.2849 18.6308C22.65 18.0121 22.6097 17.6529 23.1197 16.939C23.678 16.1591 24.2766 15.4103 24.8391 14.6346C25.364 13.91 25.9025 13.1863 26.1773 12.3197C26.3533 11.7665 26.1976 11.5227 25.6314 11.4249C25.5334 11.4089 25.4314 11.4089 25.3321 11.4089L21.9652 11.4047C21.5505 11.3981 21.3224 11.579 21.1759 11.9458C20.9772 12.4417 20.7733 12.9373 20.5367 13.4143C20.0027 14.4995 19.4051 15.5483 18.5676 16.4352C18.3823 16.6306 18.1768 16.8785 17.8683 16.7768C17.4831 16.6361 17.3691 16.0014 17.3756 15.7871L17.3727 11.9085C17.2979 11.3555 17.1741 11.1075 16.6227 11H13.1257C12.6601 11 12.4251 11.1812 12.1753 11.4717C12.0331 11.6408 11.9885 11.7491 12.2841 11.8054C12.8638 11.915 13.1928 12.2902 13.2787 12.8706C13.4171 13.799 13.4076 14.7311 13.3272 15.6622C13.3043 15.9341 13.2574 16.2049 13.1496 16.4594C12.9808 16.8599 12.7067 16.9403 12.3484 16.694C12.0252 16.4715 11.797 16.1581 11.5725 15.8434C10.7336 14.6601 10.0652 13.3851 9.5188 12.0452C9.36177 11.6579 9.08935 11.4236 8.6786 11.4168C7.669 11.4007 6.65834 11.3984 5.64742 11.4181C5.04065 11.4289 4.85939 11.7236 5.10784 12.2742C6.20728 14.7164 7.43161 17.0902 9.03033 19.2526Z" fill="white"/>
</svg>
